<svg id="home" xmlns="http://www.w3.org/2000/svg" width="20" height="22" viewBox="0 0 20 22">
  <path id="Tracé_435" data-name="Tracé 435" d="M3,9l9-7,9,7V20a2,2,0,0,1-2,2H5a2,2,0,0,1-2-2Z" transform="translate(-2 -1)" fill="none" stroke="#38b475" stroke-linecap="round" stroke-linejoin="round" stroke-width="2"/>
  <path id="Tracé_436" data-name="Tracé 436" d="M9,22V12h6V22" transform="translate(-2 -1)" fill="none" stroke="#38b475" stroke-linecap="round" stroke-linejoin="round" stroke-width="2"/>
</svg>
