<svg xmlns="http://www.w3.org/2000/svg" xmlns:xlink="http://www.w3.org/1999/xlink" width="58" height="58" viewBox="0 0 58 58">
  <defs>
    <filter id="Rectangle_1640" x="0" y="0" width="58" height="58" filterUnits="userSpaceOnUse">
      <feOffset dy="3" input="SourceAlpha"/>
      <feGaussianBlur stdDeviation="3" result="blur"/>
      <feFlood flood-color="#2c2828" flood-opacity="0.11"/>
      <feComposite operator="in" in2="blur"/>
      <feComposite in="SourceGraphic"/>
    </filter>
  </defs>
  <g id="Groupe_722" data-name="Groupe 722" transform="translate(-1140 -13)">
    <g id="trash-2" transform="translate(1159 28)">
      <path id="Tracé_450" data-name="Tracé 450" d="M3,6H21" transform="translate(-2 -1)" fill="none" stroke="#f53c56" stroke-linecap="round" stroke-linejoin="round" stroke-width="2"/>
      <path id="Tracé_451" data-name="Tracé 451" d="M19,6V20a2,2,0,0,1-2,2H7a2,2,0,0,1-2-2V6M8,6V4a2,2,0,0,1,2-2h4a2,2,0,0,1,2,2V6" transform="translate(-2 -1)" fill="none" stroke="#f53c56" stroke-linecap="round" stroke-linejoin="round" stroke-width="2"/>
      <line id="Ligne_16" data-name="Ligne 16" y2="6" transform="translate(8 10)" fill="none" stroke="#f53c56" stroke-linecap="round" stroke-linejoin="round" stroke-width="2"/>
      <line id="Ligne_17" data-name="Ligne 17" y2="6" transform="translate(12 10)" fill="none" stroke="#f53c56" stroke-linecap="round" stroke-linejoin="round" stroke-width="2"/>
    </g>
    <g transform="matrix(1, 0, 0, 1, 1140, 13)" filter="url(#Rectangle_1640)">
      <g id="Rectangle_1640-2" data-name="Rectangle 1640" transform="translate(9 6)" fill="none" stroke="#f53c56" stroke-width="1">
        <rect width="40" height="40" rx="5" stroke="none"/>
        <rect x="0.5" y="0.5" width="39" height="39" rx="4.5" fill="none"/>
      </g>
    </g>
  </g>
</svg>
