<svg xmlns="http://www.w3.org/2000/svg" width="24.092" height="26.347" viewBox="0 0 24.092 26.347">
  <g id="hoist" transform="translate(-19.91)">
    <g id="Groupe_278" data-name="Groupe 278" transform="translate(21.91)">
      <path id="Tracé_493" data-name="Tracé 493" d="M45.578,5.2H32.66a2.408,2.408,0,0,0-2.332-1.821h-.167L28.839.259a.424.424,0,0,0-.781,0L26.737,3.382h-1.02a.424.424,0,0,0-.424.424V5.2H22.334a.424.424,0,0,0-.424.424V9.011a.424.424,0,0,0,.424.424h2.958V10.4a.424.424,0,0,0,.424.424h.617V23.244H23.462a.424.424,0,0,0-.424.424v2.255a.424.424,0,0,0,.424.424h5.913a.424.424,0,1,0,0-.848H23.886V24.092h9.126V25.5H30.732a.424.424,0,0,0,0,.848h2.7a.424.424,0,0,0,.424-.424V23.668a.424.424,0,0,0-.424-.424H30.564V10.822h1.744a.424.424,0,0,0,.424-.424V9.435h10.34v3.848h-.254a.424.424,0,1,0,0,.848h.254v1.08a.424.424,0,0,0,.424.424.768.768,0,1,1-.768.768.424.424,0,1,0-.848,0,1.617,1.617,0,1,0,2.041-1.56v-.713h.254a.424.424,0,0,0,0-.848h-.254V9.435h1.657A.424.424,0,0,0,46,9.01V5.628A.424.424,0,0,0,45.578,5.2ZM22.758,8.586V6.652l1.934,1.934Zm2.534-.6L23.358,6.052h1.934Zm3.156-6.474.791,1.87H27.658Zm1.267,21.731H27.781l1.934-1.934Zm-2.534-.6V17.927l2.358,2.358Zm2.534-3.383L27.357,16.9l2.358-2.358Zm-2.534-3.382V11.422l2.228,2.228Zm2.534-3.122-1.934-1.934h1.934Zm2.168-4.72H28.829V6.779a.424.424,0,1,0-.848,0V8.461a.424.424,0,0,0,.424.424h3.479V9.974H26.141V4.231h1.84V5.394a.424.424,0,1,0,.848,0V4.231h1.5a1.558,1.558,0,0,1,1.556,1.556v2.25Zm.848-.05V6.052h1.934Zm.6.6,2.228-2.228,2.228,2.228Zm3.122-2.534h4.717L38.813,8.411Zm3.382,2.534L42.2,6.228l2.358,2.358Zm5.317-.6L43.219,6.052h1.934Z" transform="translate(-23.91)" fill="#05658d"/>
    </g>
  </g>
</svg>
